module github.com/gorbe2002/green-financier

go 1.20

require (
	github.com/joho/godotenv v1.5.1
	github.com/twilio/twilio-go v1.5.0
)

require (
	github.com/beevik/etree v1.1.0 // indirect
	github.com/golang/mock v1.6.0 // indirect
	github.com/pkg/errors v0.9.1 // indirect
)
